\relax 
\providecommand\hyper@newdestlabel[2]{}
\catcode`"\active
\catcode`<\active
\catcode`>\active
\@nameuse{es@quoting}
\providecommand\HyperFirstAtBeginDocument{\AtBeginDocument}
\HyperFirstAtBeginDocument{\ifx\hyper@anchor\@undefined
\global\let\oldcontentsline\contentsline
\gdef\contentsline#1#2#3#4{\oldcontentsline{#1}{#2}{#3}}
\global\let\oldnewlabel\newlabel
\gdef\newlabel#1#2{\newlabelxx{#1}#2}
\gdef\newlabelxx#1#2#3#4#5#6{\oldnewlabel{#1}{{#2}{#3}}}
\AtEndDocument{\ifx\hyper@anchor\@undefined
\let\contentsline\oldcontentsline
\let\newlabel\oldnewlabel
\fi}
\fi}
\global\let\hyper@last\relax 
\gdef\HyperFirstAtBeginDocument#1{#1}
\providecommand\HyField@AuxAddToFields[1]{}
\providecommand\HyField@AuxAddToCoFields[2]{}
\providecommand*\caption@xref[2]{\@setref\relax\@undefined{#1}}
\newlabel{fig:logouni}{{\caption@xref {fig:logouni}{ on input line 69}}{1}{}{figure.caption.1}{}}
\newlabel{fig:logouni@cref}{{}{1}}
\@writefile{toc}{\contentsline {chapter}{\numberline {1}Res\IeC {\'u}men}{2}{chapter.1}}
\@writefile{lof}{\addvspace {10\p@ }}
\@writefile{lot}{\addvspace {10\p@ }}
\citation{node}
\citation{aran}
\@writefile{toc}{\contentsline {chapter}{\numberline {2}Introducci\IeC {\'o}n}{3}{chapter.2}}
\@writefile{lof}{\addvspace {10\p@ }}
\@writefile{lot}{\addvspace {10\p@ }}
\citation{jsgood}
\@writefile{toc}{\contentsline {chapter}{\numberline {3}M\IeC {\'e}todos}{4}{chapter.3}}
\@writefile{lof}{\addvspace {10\p@ }}
\@writefile{lot}{\addvspace {10\p@ }}
\@writefile{toc}{\contentsline {section}{\numberline {3.1}De las aplicaciones a analizar}{4}{section.3.1}}
\@writefile{toc}{\contentsline {section}{\numberline {3.2}Generaci\IeC {\'o}n de \IeC {\'a}rbol de invocaciones}{4}{section.3.2}}
\newlabel{fig:jsflujo}{{\caption@xref {fig:jsflujo}{ on input line 119}}{4}{Generación de árbol de invocaciones}{figure.caption.3}{}}
\newlabel{fig:jsflujo@cref}{{[section][2][3]3.2}{4}}
\@writefile{lof}{\contentsline {figure}{\numberline {3.1}{\ignorespaces Ejecuci\IeC {\'o}n primera parte de la aplicaci\IeC {\'o}n\relax }}{4}{figure.caption.3}}
\citation{JGraph}
\@writefile{toc}{\contentsline {section}{\numberline {3.3}An\IeC {\'a}lisis de archivo y visualizaci\IeC {\'o}n del grafo}{5}{section.3.3}}
\newlabel{fig:javaflujo}{{\caption@xref {fig:javaflujo}{ on input line 135}}{5}{Análisis de archivo y visualización del grafo}{figure.caption.4}{}}
\newlabel{fig:javaflujo@cref}{{[section][3][3]3.3}{5}}
\@writefile{lof}{\contentsline {figure}{\numberline {3.2}{\ignorespaces Ejecuci\IeC {\'o}n segunda parte de la aplicaci\IeC {\'o}n\relax }}{5}{figure.caption.4}}
\@writefile{toc}{\contentsline {section}{\numberline {3.4}Implementaci\IeC {\'o}n}{5}{section.3.4}}
\@writefile{toc}{\contentsline {subsection}{\numberline {3.4.1}JavaScript}{5}{subsection.3.4.1}}
\@writefile{toc}{\contentsline {subsection}{\numberline {3.4.2}Java}{6}{subsection.3.4.2}}
\@writefile{toc}{\contentsline {section}{\numberline {3.5}Ejecuci\IeC {\'o}n de la aplicaci\IeC {\'o}n}{7}{section.3.5}}
\newlabel{lst:ejec}{{3.1}{7}{Comandos primera parte}{lstlisting.3.1}{}}
\newlabel{lst:ejec@cref}{{[lstlisting][1][3]3.1}{7}}
\@writefile{lol}{\contentsline {lstlisting}{\numberline {3.1}Comandos primera parte}{7}{lstlisting.3.1}}
\newlabel{fig:javadc}{{\caption@xref {fig:javadc}{ on input line 205}}{8}{Java}{figure.caption.5}{}}
\newlabel{fig:javadc@cref}{{[subsection][2][3,4]3.4.2}{8}}
\@writefile{lof}{\contentsline {figure}{\numberline {3.3}{\ignorespaces Diagrama de clases de la segunda parte\relax }}{8}{figure.caption.5}}
\newlabel{fig:mainW}{{\caption@xref {fig:mainW}{ on input line 239}}{9}{Ejecución de la aplicación}{figure.caption.6}{}}
\newlabel{fig:mainW@cref}{{[section][5][3]3.5}{9}}
\@writefile{lof}{\contentsline {figure}{\numberline {3.4}{\ignorespaces Ventana principal de la aplicaci\IeC {\'o}n\relax }}{9}{figure.caption.6}}
\newlabel{fig:graf}{{\caption@xref {fig:graf}{ on input line 246}}{9}{Ejecución de la aplicación}{figure.caption.7}{}}
\newlabel{fig:graf@cref}{{[section][5][3]3.5}{9}}
\@writefile{lof}{\contentsline {figure}{\numberline {3.5}{\ignorespaces Grafo resultante de un ejemplo\relax }}{9}{figure.caption.7}}
\@writefile{toc}{\contentsline {chapter}{\numberline {4}Conclusi\IeC {\'o}n}{10}{chapter.4}}
\@writefile{lof}{\addvspace {10\p@ }}
\@writefile{lot}{\addvspace {10\p@ }}
\bibcite{node}{1}
\bibcite{aran}{2}
\bibcite{jsgood}{3}
\bibcite{JGraph}{4}
\ttl@finishall
