\contentsline {chapter}{\numberline {1}Res\IeC {\'u}men}{2}{chapter.1}
\contentsline {chapter}{\numberline {2}Introducci\IeC {\'o}n}{3}{chapter.2}
\contentsline {chapter}{\numberline {3}M\IeC {\'e}todos}{4}{chapter.3}
\contentsline {section}{\numberline {3.1}De las aplicaciones a analizar}{4}{section.3.1}
\contentsline {section}{\numberline {3.2}Generaci\IeC {\'o}n de \IeC {\'a}rbol de invocaciones}{4}{section.3.2}
\contentsline {section}{\numberline {3.3}An\IeC {\'a}lisis de archivo y visualizaci\IeC {\'o}n del grafo}{5}{section.3.3}
\contentsline {section}{\numberline {3.4}Implementaci\IeC {\'o}n}{5}{section.3.4}
\contentsline {subsection}{\numberline {3.4.1}JavaScript}{5}{subsection.3.4.1}
\contentsline {subsection}{\numberline {3.4.2}Java}{6}{subsection.3.4.2}
\contentsline {section}{\numberline {3.5}Ejecuci\IeC {\'o}n de la aplicaci\IeC {\'o}n}{7}{section.3.5}
\contentsline {chapter}{\numberline {4}Conclusi\IeC {\'o}n}{10}{chapter.4}
\contentsfinish 
